[2021-10-24T09:11:22.376+0200][gc] Using G1
[2021-10-24T09:11:22.396+0200][gc,init] Version: 17.0.1+12-LTS-39 (release)
[2021-10-24T09:11:22.396+0200][gc,init] CPUs: 4 total, 4 available
[2021-10-24T09:11:22.396+0200][gc,init] Memory: 8067M
[2021-10-24T09:11:22.396+0200][gc,init] Large Page Support: Disabled
[2021-10-24T09:11:22.396+0200][gc,init] NUMA Support: Disabled
[2021-10-24T09:11:22.396+0200][gc,init] Compressed Oops: Enabled (32-bit)
[2021-10-24T09:11:22.397+0200][gc,init] Heap Region Size: 1M
[2021-10-24T09:11:22.397+0200][gc,init] Heap Min Capacity: 1G
[2021-10-24T09:11:22.397+0200][gc,init] Heap Initial Capacity: 1G
[2021-10-24T09:11:22.398+0200][gc,init] Heap Max Capacity: 1G
[2021-10-24T09:11:22.399+0200][gc,init] Pre-touch: Disabled
[2021-10-24T09:11:22.399+0200][gc,init] Parallel Workers: 4
[2021-10-24T09:11:22.399+0200][gc,init] Concurrent Workers: 1
[2021-10-24T09:11:22.400+0200][gc,init] Concurrent Refinement Workers: 4
[2021-10-24T09:11:22.400+0200][gc,init] Periodic GC: Disabled
[2021-10-24T09:11:22.402+0200][gc,metaspace] CDS archive(s) mapped at: [0x0000000800000000-0x0000000800bc0000-0x0000000800bc0000), size 12320768, SharedBaseAddress: 0x0000000800000000, ArchiveRelocationMode: 0.
[2021-10-24T09:11:22.402+0200][gc,metaspace] Compressed class space mapped at: 0x0000000800c00000-0x0000000840c00000, reserved size: 1073741824
[2021-10-24T09:11:22.403+0200][gc,metaspace] Narrow klass base: 0x0000000800000000, Narrow klass shift: 0, Narrow klass range: 0x100000000
[2021-10-24T09:11:23.135+0200][gc,heap,exit] Heap
[2021-10-24T09:11:23.136+0200][gc,heap,exit]  garbage-first heap   total 1048576K, used 6146K [0x00000000c0000000, 0x0000000100000000)
[2021-10-24T09:11:23.136+0200][gc,heap,exit]   region size 1024K, 7 young (7168K), 0 survivors (0K)
[2021-10-24T09:11:23.137+0200][gc,heap,exit]  Metaspace       used 4544K, committed 4800K, reserved 1056768K
[2021-10-24T09:11:23.137+0200][gc,heap,exit]   class space    used 508K, committed 640K, reserved 1048576K
